1,2019,376,3334,376,3334,447,2019,447,RED BIRD HONG KONG LTD.,
2,968,488,4383,488,4383,555,968,555,ROOM 1113, 11TH FLOOR, CHINACHEM GOLDEN PLAZA, 77 MODY ROAD, TSIM HONG KONG,
2,2176,683,3171,683,3171,740,2176,740,Tel:0769-81080068 ext#1183,
3,2361,774,2987,774,2987,831,2361,831,TAX 1D#64572314,
3,2274,913,3341,913,3341,984,2274,984,COMMERCIAL INVOICE,
5,4337,903,4759,903,4759,949,4337,949,PAGE 1 OF __1,
6,354,1044,555,1044,555,1077,354,1077,SOLD TO:,
6,354,1101,947,1101,947,1142,354,1142,Operadora del Sur S.A. de C.V.,
6,3006,1112,3355,1112,3355,1153,3006,1153,ORDER No. (PO):,
6,3607,1113,3846,1113,3846,1145,3607,1145,2450640338,
6,4109,1112,4374,1112,4374,1145,4109,1145,INVOICE No.:,
6,4676,1113,4866,1113,4866,1145,4676,1145,91576650,
6,355,1169,2219,1169,2219,1210,355,1210,Entre Calle Nueva#1 y Calle Nueva #2 Av. Manuel Enrique Araujo, Col, Escalon, San Salvador, El,
6,2874,1167,3356,1167,3356,1200,2874,1200,COUNTRY OF ORIGIN:,
6,3661,1167,3794,1167,3794,1200,3661,1200,CHINA,
6,4251,1164,4375,1164,4375,1210,4251,1210,DATE:,
6,4676,1167,4865,1167,4865,1200,4676,1200,4/12/2018,
6,354,1225,525,1225,525,1258,354,1258,Salvador,
6,3088,1217,3597,1217,3597,1265,3088,1265,INCOTERMS: FOB,
6,3787,1221,4109,1221,4109,1254,3787,1254,NAMED PLACE:,
6,4573,1221,4738,1221,4738,1254,4573,1254,NINGBO,
6,2681,1275,3356,1275,3356,1308,2681,1308,NEGOTIATED PAYMENT TERMS:,
6,4230,1275,4293,1275,4293,1308,4230,1308,T/T,
6,2705,1329,3355,1329,3355,1362,2705,1362,BENEFICIARY NAME if different:,
7,2743,1383,3355,1383,3355,1416,2743,1416,LC PRODUCT DESCRIPTION:,
7,1412,1496,1937,1496,1937,1532,1412,1532,Please provide for each item:,
8,3772,1496,4384,1496,4384,1532,3772,1532,Please also provide for each item:,
8,1597,1548,2273,1548,2273,1576,1597,1576,PRODUCT DESCRIPTION AS PER PO,
8,2761,1549,2894,1549,2894,1577,2761,1577,MODEL,
8,1944,1603,1947,1603,1947,1606,1944,1606,i,
8,2086,1603,2089,1603,2089,1606,2086,1606,ic,,
8,2187,1626,2191,1626,2191,1630,2187,1630,etc.,
8,2766,1600,2887,1600,2887,1628,2766,1628,STYLE,
8,529,1601,691,1601,691,1680,529,1680,STOCK,
8,902,1628,1195,1628,1195,1655,902,1655,WALMART ITEM,
8,1663,1602,2207,1602,2207,1684,1663,1684,SHAND Tak RO BEAND,
8,2747,1655,2908,1655,2908,1683,2747,1683,GENDER,
8,3125,1627,4766,1627,4766,1682,3125,1682,SERIAL NUMBER arty. units |aty. cases| CROSS kg] NET kg per} UNIT NET,
8,4926,1627,5052,1627,5052,1655,4926,1655,TOTAL,
8,970,1679,1132,1679,1132,1706,970,1706,NUMBER,
8,1807,1656,2037,1656,2037,1710,1807,1710,(or indicate N\,
8,3176,1660,3381,1660,3381,1717,3176,1717,(electronics),
8,4107,1660,5115,1660,5115,1717,4107,1717,perCASE| CASE FOB PRICE | PRICE in US$,
8,531,1704,692,1704,692,1731,531,1731,NUMBER,
8,1635,1706,2234,1706,2234,1742,1635,1742,or SIN MARCA if there is no brand),
9,1520,1758,2348,1758,2348,1794,1520,1794,TECHNICAL CHARACTERISTICS (if applicable),
9,537,1834,686,1834,686,1862,537,1862,6029349,
9,966,1834,1136,1834,1136,1862,966,1862,70034019,
9,1230,1811,1918,1811,1918,1847,1230,1847,~-JYueges de Ajedrez/Dama/ Tres En Raya,
9,3780,1834,3819,1834,3819,1862,3780,1862,60,
9,4035,1834,4072,1834,4072,1862,4035,1862,10,
9,4195,1834,4289,1834,4289,1862,4195,1862,2.500,
9,4428,1834,4522,1834,4522,1862,4428,1862,2.100,
9,4700,1834,4816,1834,4816,1862,4700,1862,2.0000,
9,5028,1834,5140,1834,5140,1862,5028,1862,120.00,
9,1231,1910,1636,1910,1636,1946,1231,1946,80% plastic, 20% paper,
9,1232,2008,1597,2008,1597,2036,1232,2036,Brand Name:Cardinal,
9,1229,2106,1363,2106,1363,2134,1229,2134,AGE:6+,
9,1232,2205,1508,2205,1508,2233,1232,2233,BATTERIES:NO,
9,1232,2304,1494,2304,1494,2339,1232,2339,Educational toy,
9,537,2522,686,2522,686,2550,537,2550,6030229,
9,966,2500,1896,2500,1896,2550,966,2550,70033645 JUEGO DE MESA DOMINO AJEDREZ,
9,3781,2522,3819,2522,3819,2550,3781,2550,90,
9,4035,2522,4073,2522,4073,2550,4035,2550,15,
9,4196,2522,4289,2522,4289,2550,4196,2550,2.550,
9,4428,2522,4522,2522,4522,2550,4428,2550,2.110,
9,4701,2522,4816,2522,4816,2550,4701,2550,2.1000,
9,5028,2522,5140,2522,5140,2550,5028,2550,189.00,
9,1231,2598,1663,2598,1663,2634,1231,2634,90% wooden, 10% paper,
9,1232,2696,1597,2696,1597,2724,1232,2724,Brand Name:Cardinal,
9,1229,2795,1363,2795,1363,2823,1229,2823,AGE:6+,
10,1232,2894,1493,2894,1493,2929,1232,2929,Educational toy,
10,3178,3082,4083,3082,4083,3140,3178,3140,PAGE 1SUBTOTAL:| == 150] = 25,
10,4450,3096,4814,3096,4814,3124,4450,3124,PAGE 1 SUBTOTAL:,
10,5012,3093,5140,3093,5140,3125,5012,3125,309.00,
10,3639,3178,3748,3178,3748,3206,3639,3206,UNITS,
10,3893,3178,4020,3178,4020,3207,3893,3207,CASES,
10,4176,3178,4366,3178,4366,3214,4176,3214,GROSS kg,
10,4580,3179,4707,3179,4707,3214,4580,3214,NET kg,
11,4871,3178,5112,3178,5112,3212,4871,3212,PRICE in US$,
11,3242,3203,4847,3203,4847,3300,3242,3300,INVOICE ToTAL:[| 150] -25| 63.280] «52.650],
18,5011,3238,5140,3238,5140,3270,5011,3270,309.00,
18,899,3346,1200,3346,1200,3379,899,3379,STATEMENTS:,
19,887,3402,1812,3402,1812,3443,887,3443,The condition of the imported merchandise--New,
19,352,3725,896,3725,896,3758,352,3758, AUTHORIZED SIGNATURE,
